Steps: 52000	Loss: 394468.68750	PPL: 11.72461	bleu: 29.72841	LR: 0.00020000	
Steps: 54000	Loss: 393627.93750	PPL: 11.66326	bleu: 29.76510	LR: 0.00020000	
Steps: 56000	Loss: 396026.06250	PPL: 11.83912	bleu: 29.63543	LR: 0.00020000	
Steps: 58000	Loss: 394596.40625	PPL: 11.73396	bleu: 29.56202	LR: 0.00020000	
Steps: 60000	Loss: 397391.93750	PPL: 11.94046	bleu: 29.57072	LR: 0.00020000	
Steps: 62000	Loss: 406316.15625	PPL: 12.62432	bleu: 28.43462	LR: 0.00020000	
Steps: 64000	Loss: 398582.71875	PPL: 12.02953	bleu: 29.26965	LR: 0.00020000	
Steps: 66000	Loss: 399706.50000	PPL: 12.11419	bleu: 29.37520	LR: 0.00020000	
Steps: 68000	Loss: 400889.84375	PPL: 12.20398	bleu: 29.29936	LR: 0.00020000	
Steps: 70000	Loss: 401498.75000	PPL: 12.25044	bleu: 29.62287	LR: 0.00020000	
Steps: 72000	Loss: 403987.53125	PPL: 12.44219	bleu: 29.42248	LR: 0.00014000	
Steps: 74000	Loss: 400497.84375	PPL: 12.17416	bleu: 29.98247	LR: 0.00014000	
Steps: 76000	Loss: 401238.84375	PPL: 12.23059	bleu: 29.70539	LR: 0.00014000	
Steps: 78000	Loss: 404105.87500	PPL: 12.45138	bleu: 29.63399	LR: 0.00014000	
Steps: 80000	Loss: 405170.87500	PPL: 12.53441	bleu: 29.64939	LR: 0.00014000	
Steps: 82000	Loss: 406770.96875	PPL: 12.66020	bleu: 29.56671	LR: 0.00014000	
Steps: 84000	Loss: 407386.50000	PPL: 12.70893	bleu: 29.61377	LR: 0.00014000	
Steps: 86000	Loss: 409007.46875	PPL: 12.83814	bleu: 29.58298	LR: 0.00014000	
Steps: 88000	Loss: 409963.37500	PPL: 12.91495	bleu: 29.57519	LR: 0.00014000	
Steps: 90000	Loss: 413346.65625	PPL: 13.19053	bleu: 29.38039	LR: 0.00009800	
Steps: 92000	Loss: 411078.31250	PPL: 13.00512	bleu: 29.57438	LR: 0.00009800	
Steps: 94000	Loss: 413497.40625	PPL: 13.20294	bleu: 29.44579	LR: 0.00009800	
Steps: 96000	Loss: 414795.31250	PPL: 13.31032	bleu: 29.40844	LR: 0.00009800	
Steps: 98000	Loss: 416795.03125	PPL: 13.47746	bleu: 29.44173	LR: 0.00009800	
Steps: 100000	Loss: 417632.15625	PPL: 13.54805	bleu: 29.15861	LR: 0.00009800	
Steps: 102000	Loss: 420271.18750	PPL: 13.77302	bleu: 29.28874	LR: 0.00009800	
Steps: 104000	Loss: 422041.68750	PPL: 13.92604	bleu: 28.95991	LR: 0.00009800	
Steps: 106000	Loss: 423831.59375	PPL: 14.08246	bleu: 29.13863	LR: 0.00009800	
Steps: 108000	Loss: 423689.28125	PPL: 14.06996	bleu: 29.24681	LR: 0.00006860	
Steps: 110000	Loss: 425248.46875	PPL: 14.20753	bleu: 29.17292	LR: 0.00006860	
Steps: 112000	Loss: 425257.00000	PPL: 14.20829	bleu: 29.02687	LR: 0.00006860	
Steps: 114000	Loss: 428123.06250	PPL: 14.46470	bleu: 28.89558	LR: 0.00006860	
Steps: 116000	Loss: 428918.71875	PPL: 14.53670	bleu: 28.58351	LR: 0.00006860	
Steps: 118000	Loss: 431096.56250	PPL: 14.73562	bleu: 28.84817	LR: 0.00006860	
Steps: 120000	Loss: 431377.28125	PPL: 14.76146	bleu: 28.98321	LR: 0.00006860	
Steps: 122000	Loss: 434198.87500	PPL: 15.02368	bleu: 28.96852	LR: 0.00006860	
Steps: 124000	Loss: 434558.25000	PPL: 15.05741	bleu: 28.84988	LR: 0.00006860	
Steps: 126000	Loss: 437057.71875	PPL: 15.29412	bleu: 28.58075	LR: 0.00004802	
Steps: 128000	Loss: 436527.25000	PPL: 15.24357	bleu: 28.71531	LR: 0.00004802	
Steps: 130000	Loss: 438878.62500	PPL: 15.46890	bleu: 28.80350	LR: 0.00004802	
Steps: 132000	Loss: 439143.68750	PPL: 15.49451	bleu: 28.59332	LR: 0.00004802	
Steps: 134000	Loss: 441056.68750	PPL: 15.68060	bleu: 28.57145	LR: 0.00004802	
Steps: 136000	Loss: 442336.06250	PPL: 15.80629	bleu: 28.60429	LR: 0.00004802	
Steps: 138000	Loss: 444088.53125	PPL: 15.98010	bleu: 28.30848	LR: 0.00004802	
Steps: 140000	Loss: 445220.25000	PPL: 16.09336	bleu: 28.48903	LR: 0.00004802	
Steps: 142000	Loss: 446697.40625	PPL: 16.24240	bleu: 28.33252	LR: 0.00004802	
Steps: 144000	Loss: 447527.62500	PPL: 16.32677	bleu: 28.40744	LR: 0.00003361	
Steps: 146000	Loss: 448428.62500	PPL: 16.41883	bleu: 28.48017	LR: 0.00003361	
Steps: 148000	Loss: 449404.90625	PPL: 16.51917	bleu: 28.45931	LR: 0.00003361	
Steps: 150000	Loss: 450297.68750	PPL: 16.61146	bleu: 28.22891	LR: 0.00003361	
Steps: 152000	Loss: 451437.96875	PPL: 16.73008	bleu: 28.30032	LR: 0.00003361	
Steps: 154000	Loss: 452115.28125	PPL: 16.80095	bleu: 28.26599	LR: 0.00003361	
Steps: 156000	Loss: 452880.37500	PPL: 16.88136	bleu: 28.19788	LR: 0.00003361	
Steps: 158000	Loss: 453937.84375	PPL: 16.99313	bleu: 28.13796	LR: 0.00003361	
Steps: 160000	Loss: 455332.12500	PPL: 17.14163	bleu: 28.10925	LR: 0.00003361	
Steps: 162000	Loss: 456570.59375	PPL: 17.27463	bleu: 27.93143	LR: 0.00002353	
Steps: 164000	Loss: 456958.00000	PPL: 17.31644	bleu: 27.98807	LR: 0.00002353	
Steps: 166000	Loss: 457661.03125	PPL: 17.39258	bleu: 28.03029	LR: 0.00002353	
Steps: 168000	Loss: 458254.40625	PPL: 17.45711	bleu: 28.08397	LR: 0.00002353	
Steps: 170000	Loss: 459096.93750	PPL: 17.54913	bleu: 27.94158	LR: 0.00002353	
Steps: 172000	Loss: 460162.46875	PPL: 17.66621	bleu: 27.94495	LR: 0.00002353	
Steps: 174000	Loss: 460534.90625	PPL: 17.70732	bleu: 28.06681	LR: 0.00002353	
Steps: 176000	Loss: 461775.03125	PPL: 17.84489	bleu: 27.83654	LR: 0.00002353	
Steps: 178000	Loss: 462160.31250	PPL: 17.88785	bleu: 27.97727	LR: 0.00002353	
Steps: 180000	Loss: 463000.00000	PPL: 17.98183	bleu: 27.70157	LR: 0.00001647	
Steps: 182000	Loss: 463230.40625	PPL: 18.00770	bleu: 27.75996	LR: 0.00001647	
Steps: 184000	Loss: 463728.21875	PPL: 18.06373	bleu: 27.97477	LR: 0.00001647	
Steps: 186000	Loss: 464360.25000	PPL: 18.13512	bleu: 27.82669	LR: 0.00001647	
Steps: 188000	Loss: 465243.68750	PPL: 18.23538	bleu: 27.87974	LR: 0.00001647	
Steps: 190000	Loss: 465997.03125	PPL: 18.32131	bleu: 27.76778	LR: 0.00001647	
Steps: 192000	Loss: 466606.65625	PPL: 18.39114	bleu: 27.77191	LR: 0.00001647	
Steps: 194000	Loss: 467178.65625	PPL: 18.45691	bleu: 27.81313	LR: 0.00001647	
Steps: 196000	Loss: 467344.03125	PPL: 18.47597	bleu: 27.74872	LR: 0.00001647	
Steps: 198000	Loss: 467753.31250	PPL: 18.52322	bleu: 27.86557	LR: 0.00001153	
Steps: 200000	Loss: 468316.15625	PPL: 18.58839	bleu: 27.71982	LR: 0.00001153	
Steps: 202000	Loss: 468931.59375	PPL: 18.65992	bleu: 27.87411	LR: 0.00001153	
Steps: 204000	Loss: 469369.71875	PPL: 18.71101	bleu: 27.71058	LR: 0.00001153	
Steps: 206000	Loss: 469392.18750	PPL: 18.71363	bleu: 27.77968	LR: 0.00001153	
Steps: 208000	Loss: 470336.15625	PPL: 18.82420	bleu: 27.62498	LR: 0.00001153	
Steps: 210000	Loss: 470532.68750	PPL: 18.84730	bleu: 27.78509	LR: 0.00001153	
Steps: 212000	Loss: 471133.65625	PPL: 18.91812	bleu: 27.56789	LR: 0.00001153	
Steps: 214000	Loss: 471572.84375	PPL: 18.97004	bleu: 27.64985	LR: 0.00001153	
Steps: 216000	Loss: 471715.31250	PPL: 18.98691	bleu: 27.58864	LR: 0.00000807	
Steps: 218000	Loss: 472113.78125	PPL: 19.03418	bleu: 27.80340	LR: 0.00000807	
Steps: 220000	Loss: 472286.03125	PPL: 19.05466	bleu: 27.69987	LR: 0.00000807	
Steps: 222000	Loss: 472622.03125	PPL: 19.09465	bleu: 27.46948	LR: 0.00000807	
Steps: 224000	Loss: 473142.28125	PPL: 19.15674	bleu: 27.53339	LR: 0.00000807	
Steps: 226000	Loss: 473201.62500	PPL: 19.16384	bleu: 27.61525	LR: 0.00000807	
Steps: 228000	Loss: 473621.46875	PPL: 19.21411	bleu: 27.61846	LR: 0.00000807	
Steps: 230000	Loss: 473862.34375	PPL: 19.24302	bleu: 27.60094	LR: 0.00000807	
Steps: 232000	Loss: 474257.46875	PPL: 19.29053	bleu: 27.61286	LR: 0.00000807	
Steps: 234000	Loss: 474422.31250	PPL: 19.31038	bleu: 27.56418	LR: 0.00000565	
Steps: 236000	Loss: 474902.00000	PPL: 19.36827	bleu: 27.61983	LR: 0.00000565	
